22

4
5
-2
-1
8
7
-2
-1

4
5
-1
-1
4

2
-1
10
8
2
9
-2
-3
-1
-1

10
6
2
5
-4
7
3
4
9
-3
-1
-3
-2
-3
-1

9
5
5
-2
-2
7
8
2
4

9
2
5
9
-4
-1
-1
6
10
8
4
-3
-1
-3

5
6
-2
-1
6
10
3
-2
-2
-1

2
10
10
3
-4
-3
-2
-1
10
6
9
6
-3
-1
-2

2
-1
9
1
7
-2

6
6
-2
9
1
-2

8
9
6
-2
1
3
4
-1
-3

3
10
1
5
3
3
-1
-3
-3

4
-1
8
10
7
6
6
-1
-3
-3

2
9

2
-1
2
1
5
2
-2
-1
-1

4
5
6
1
-3
-3
-2

3
9
8
-2
5
1
-4
-3

4
8
4
2
8
3
5
8
-3
-4
-2

6
4
2
1
-1
-2
-2
4
9
2
-1
-2

2
3
-1
9
6
-3

8
6
8
2
-2
-2
10
3

7
5
2
6
2
-4
-3
-3
